\relax 
\providecommand\hyper@newdestlabel[2]{}
\providecommand\HyperFirstAtBeginDocument{\AtBeginDocument}
\HyperFirstAtBeginDocument{\ifx\hyper@anchor\@undefined
\global\let\oldcontentsline\contentsline
\gdef\contentsline#1#2#3#4{\oldcontentsline{#1}{#2}{#3}}
\global\let\oldnewlabel\newlabel
\gdef\newlabel#1#2{\newlabelxx{#1}#2}
\gdef\newlabelxx#1#2#3#4#5#6{\oldnewlabel{#1}{{#2}{#3}}}
\AtEndDocument{\ifx\hyper@anchor\@undefined
\let\contentsline\oldcontentsline
\let\newlabel\oldnewlabel
\fi}
\fi}
\global\let\hyper@last\relax 
\gdef\HyperFirstAtBeginDocument#1{#1}
\providecommand\HyField@AuxAddToFields[1]{}
\providecommand\HyField@AuxAddToCoFields[2]{}
\@writefile{nav}{\headcommand {\slideentry {0}{0}{1}{1/1}{}{0}}}
\@writefile{nav}{\headcommand {\beamer@framepages {1}{1}}}
\@writefile{nav}{\headcommand {\slideentry {0}{0}{2}{2/3}{}{0}}}
\@writefile{nav}{\headcommand {\beamer@framepages {2}{3}}}
\@writefile{nav}{\headcommand {\slideentry {0}{0}{3}{4/11}{}{0}}}
\@writefile{nav}{\headcommand {\beamer@framepages {4}{11}}}
\@writefile{nav}{\headcommand {\slideentry {0}{0}{4}{12/15}{}{0}}}
\@writefile{nav}{\headcommand {\beamer@framepages {12}{15}}}
\@writefile{nav}{\headcommand {\slideentry {0}{0}{5}{16/22}{}{0}}}
\@writefile{nav}{\headcommand {\beamer@framepages {16}{22}}}
\@writefile{nav}{\headcommand {\slideentry {0}{0}{6}{23/28}{}{0}}}
\@writefile{nav}{\headcommand {\beamer@framepages {23}{28}}}
\@writefile{nav}{\headcommand {\slideentry {0}{0}{7}{29/33}{}{0}}}
\@writefile{nav}{\headcommand {\beamer@framepages {29}{33}}}
\@writefile{nav}{\headcommand {\slideentry {0}{0}{8}{34/38}{}{0}}}
\@writefile{nav}{\headcommand {\beamer@framepages {34}{38}}}
\@writefile{nav}{\headcommand {\slideentry {0}{0}{9}{39/44}{}{0}}}
\@writefile{nav}{\headcommand {\beamer@framepages {39}{44}}}
\@writefile{nav}{\headcommand {\slideentry {0}{0}{10}{45/47}{}{0}}}
\@writefile{nav}{\headcommand {\beamer@framepages {45}{47}}}
\@writefile{nav}{\headcommand {\slideentry {0}{0}{11}{48/48}{}{0}}}
\@writefile{nav}{\headcommand {\beamer@framepages {48}{48}}}
\@writefile{nav}{\headcommand {\slideentry {0}{0}{12}{49/53}{}{0}}}
\@writefile{nav}{\headcommand {\beamer@framepages {49}{53}}}
\@writefile{nav}{\headcommand {\slideentry {0}{0}{13}{54/58}{}{0}}}
\@writefile{nav}{\headcommand {\beamer@framepages {54}{58}}}
\@writefile{nav}{\headcommand {\slideentry {0}{0}{14}{59/63}{}{0}}}
\@writefile{nav}{\headcommand {\beamer@framepages {59}{63}}}
\@writefile{nav}{\headcommand {\slideentry {0}{0}{15}{64/69}{}{0}}}
\@writefile{nav}{\headcommand {\beamer@framepages {64}{69}}}
\@writefile{nav}{\headcommand {\slideentry {0}{0}{16}{70/71}{}{0}}}
\@writefile{nav}{\headcommand {\beamer@framepages {70}{71}}}
\@writefile{nav}{\headcommand {\slideentry {0}{0}{17}{72/75}{}{0}}}
\@writefile{nav}{\headcommand {\beamer@framepages {72}{75}}}
\@writefile{nav}{\headcommand {\slideentry {0}{0}{18}{76/79}{}{0}}}
\@writefile{nav}{\headcommand {\beamer@framepages {76}{79}}}
\@writefile{nav}{\headcommand {\beamer@partpages {1}{79}}}
\@writefile{nav}{\headcommand {\beamer@subsectionpages {1}{79}}}
\@writefile{nav}{\headcommand {\beamer@sectionpages {1}{79}}}
\@writefile{nav}{\headcommand {\beamer@documentpages {79}}}
\@writefile{nav}{\headcommand {\gdef \inserttotalframenumber {18}}}
