\relax 
\citation{1}
\@writefile{toc}{\contentsline {section}{\numberline {1}Texturi \c si imagini color}{1}\protected@file@percent }
\@writefile{toc}{\contentsline {subsection}{\numberline {1.1}Procesarea texturilor}{1}\protected@file@percent }
\bibcite{1}{1}
