\relax 
\@writefile{toc}{\contentsline {section}{\numberline {1}Introducere}{1}\protected@file@percent }
\@writefile{toc}{\contentsline {section}{\numberline {2}Rezultate utilizare \^in document}{1}\protected@file@percent }
\newlabel{pitagora}{{1}{1}}
\newlabel{eq1}{{1}{1}}
\@writefile{toc}{\contentsline {section}{\numberline {3}Concluzii}{1}\protected@file@percent }
