\relax 
\@writefile{toc}{\contentsline {section}{\numberline {1}Exerci\c tiul 1}{1}\protected@file@percent }
\@writefile{toc}{\contentsline {subsection}{\numberline {1.1}Breviar teoretic}{1}\protected@file@percent }
\newlabel{fig1}{{}{1}}
\@writefile{lof}{\contentsline {figure}{\numberline {1}{\ignorespaces \leavevmode {\color  {peachy}Un arbore cu r\u ad\u acin\u a}}}{1}\protected@file@percent }
\@writefile{toc}{\contentsline {section}{\numberline {2}Exerci\c tiul 2}{2}\protected@file@percent }
\@writefile{loa}{\contentsline {algorithm}{\numberline {1}{\ignorespaces }}{2}\protected@file@percent }
\newlabel{alg1}{{1}{2}}
\@writefile{lof}{\contentsline {figure}{\numberline {2}{\ignorespaces Un arbore cu r\u ad\u acin\u a}}{2}\protected@file@percent }
\@writefile{lot}{\contentsline {table}{\numberline {1}{\ignorespaces Algoritmul lui Dijkstra aplicat grafului din Figura 6.5}}{2}\protected@file@percent }
\newlabel{table:1}{{1}{2}}
