\relax 
\providecommand\hyper@newdestlabel[2]{}
\providecommand\HyperFirstAtBeginDocument{\AtBeginDocument}
\HyperFirstAtBeginDocument{\ifx\hyper@anchor\@undefined
\global\let\oldcontentsline\contentsline
\gdef\contentsline#1#2#3#4{\oldcontentsline{#1}{#2}{#3}}
\global\let\oldnewlabel\newlabel
\gdef\newlabel#1#2{\newlabelxx{#1}#2}
\gdef\newlabelxx#1#2#3#4#5#6{\oldnewlabel{#1}{{#2}{#3}}}
\AtEndDocument{\ifx\hyper@anchor\@undefined
\let\contentsline\oldcontentsline
\let\newlabel\oldnewlabel
\fi}
\fi}
\global\let\hyper@last\relax 
\gdef\HyperFirstAtBeginDocument#1{#1}
\providecommand\HyField@AuxAddToFields[1]{}
\providecommand\HyField@AuxAddToCoFields[2]{}
\citation{1}
\@writefile{toc}{\contentsline {chapter}{\numberline {1}Algoritmi comuni}{1}{chapter.1}\protected@file@percent }
\@writefile{lof}{\addvspace {10\p@ }}
\@writefile{lot}{\addvspace {10\p@ }}
\@writefile{toc}{\contentsline {section}{\numberline {1.1}Divide et Impera \cite  {1}}{1}{section.1.1}\protected@file@percent }
\@writefile{toc}{\contentsline {section}{\numberline {1.2}Recursivitate}{1}{section.1.2}\protected@file@percent }
\@writefile{toc}{\contentsline {section}{\numberline {1.3}Greedy}{1}{section.1.3}\protected@file@percent }
\@writefile{toc}{\contentsline {section}{\numberline {1.4}Programare dinamic\u a}{1}{section.1.4}\protected@file@percent }
\citation{2}
\@writefile{toc}{\contentsline {chapter}{\numberline {2}Big O notation}{2}{chapter.2}\protected@file@percent }
\@writefile{lof}{\addvspace {10\p@ }}
\@writefile{lot}{\addvspace {10\p@ }}
\@writefile{toc}{\contentsline {section}{\numberline {2.1}Complexitatea temporal\u a a programului recursiv \\ Fibonacci \cite  {2}}{2}{section.2.1}\protected@file@percent }
\@writefile{toc}{\contentsline {chapter}{\numberline {3}Structuri de Date}{4}{chapter.3}\protected@file@percent }
\@writefile{lof}{\addvspace {10\p@ }}
\@writefile{lot}{\addvspace {10\p@ }}
\@writefile{toc}{\contentsline {section}{\numberline {3.1}Elementele unei mul\c timi dinamice}{4}{section.3.1}\protected@file@percent }
\@writefile{toc}{\contentsline {section}{\numberline {3.2}Opera\c tii pe mul\c timi dinamice}{4}{section.3.2}\protected@file@percent }
\citation{3}
\@writefile{toc}{\contentsline {section}{\numberline {3.3}Stive \c si Cozi \cite  {3}}{5}{section.3.3}\protected@file@percent }
\@writefile{toc}{\contentsline {subsection}{\numberline {3.3.1}Stive}{5}{subsection.3.3.1}\protected@file@percent }
\@writefile{lof}{\contentsline {figure}{\numberline {3.1}{\ignorespaces O implementare cu array a unei stive $S$. Elementele stivei apar doar \^in pozi\c tiile u\c sor umbrite. \textbf  {(a)} Stiva $S$ are 4 elemente. Elementul de sus este 9. \textbf  {(b)} Stiva $S$ dup\u a apelurile $PUSH(S,17)$ \c si $PUSH(S,3)$. \textbf  {(c)} Stiva $S$ dup\u a apelul $POP(S)$ a returnat elementul $3$, care este cel mai recent \^impins. De\c si elementul $3$ apare \^inc\u a \^in array, nu mai este \^in stiv\u a; v\^arful este elementul $17$.}}{6}{figure.3.1}\protected@file@percent }
\newlabel{Figure1}{{3.1}{6}{O implementare cu array a unei stive $S$. Elementele stivei apar doar \^in pozi\c tiile u\c sor umbrite. \textbf {(a)} Stiva $S$ are 4 elemente. Elementul de sus este 9. \textbf {(b)} Stiva $S$ dup\u a apelurile $PUSH(S,17)$ \c si $PUSH(S,3)$. \textbf {(c)} Stiva $S$ dup\u a apelul $POP(S)$ a returnat elementul $3$, care este cel mai recent \^impins. De\c si elementul $3$ apare \^inc\u a \^in array, nu mai este \^in stiv\u a; v\^arful este elementul $17$}{figure.3.1}{}}
\@writefile{lof}{\contentsline {figure}{\numberline {3.2}{\ignorespaces O coad\u a implementat\u a utiliz\^and un array $Q[1..12]$. Elementele de coad\u a apar doar \^in pozi\c tiile u\c sor umbrite. \textbf  {(a)} Coada are 5 elemente, \^in loca\c tiile $Q[7..11]$. \textbf  {(b)} Configurarea cozii dup\u a apelurile $ENQUEUE(Q,17)$, $ENQUEUE(Q,3)$ \c si $ENQUEUE(Q,5)$. \textbf  {(c)} Configurarea cozii dup\u a apelul $DEQUEUE(Q)$ returneaz\u a valoarea cheii 15 anterior \^in capul cozii. Noul cap are cheia 6.}}{7}{figure.3.2}\protected@file@percent }
\newlabel{Figure2}{{3.2}{7}{O coad\u a implementat\u a utiliz\^and un array $Q[1..12]$. Elementele de coad\u a apar doar \^in pozi\c tiile u\c sor umbrite. \textbf {(a)} Coada are 5 elemente, \^in loca\c tiile $Q[7..11]$. \textbf {(b)} Configurarea cozii dup\u a apelurile $ENQUEUE(Q,17)$, $ENQUEUE(Q,3)$ \c si $ENQUEUE(Q,5)$. \textbf {(c)} Configurarea cozii dup\u a apelul $DEQUEUE(Q)$ returneaz\u a valoarea cheii 15 anterior \^in capul cozii. Noul cap are cheia 6}{figure.3.2}{}}
\@writefile{toc}{\contentsline {subsection}{\numberline {3.3.2}Cozi}{7}{subsection.3.3.2}\protected@file@percent }
\@writefile{toc}{\contentsline {section}{\numberline {3.4}Liste \^inl\u an\c tuite}{8}{section.3.4}\protected@file@percent }
\@writefile{toc}{\contentsline {subsection}{\numberline {3.4.1}C\u autarea \^intr-o list\u a \^inl\u an\c tuit\u a}{8}{subsection.3.4.1}\protected@file@percent }
\@writefile{lof}{\contentsline {figure}{\numberline {3.3}{\ignorespaces \textbf  {(a)} O list\u a L dublu \^inl\u an\c tuit\u a reprezent\^and setul dinamic ${1,4,9,16}$. Fiecare element din list\u a este un obiect cu atribute pentru cheie \c si indicatoare (afi\c sate cu s\u age\c ti) la obiectele urm\u atoare \c si anterioare. Atributul \textit  {next} al cozii \c si atributul \textit  {prev} al capului sunt $NIL$, indicate printr-o bar\u a diagonal\u a. Atributul $L.cap$ arat\u a spre cap. \textbf  {(b)} Dup\u a executarea $LIST-INSERT(L,x)$, unde $x.key = 25$, lista \^inl\u an\c tuit\u a are un nou obiect cu cheia 25 ca nou cap. Acest nou obiect indic\u a capul vechi cu cheia 9. \textbf  {(c)} Rezultatul apelului ulterior $LIST-DELETE(L,x)$, unde $x$ indic\u a obiectul cu cheia 4.}}{9}{figure.3.3}\protected@file@percent }
\newlabel{Figure3}{{3.3}{9}{\textbf {(a)} O list\u a L dublu \^inl\u an\c tuit\u a reprezent\^and setul dinamic ${1,4,9,16}$. Fiecare element din list\u a este un obiect cu atribute pentru cheie \c si indicatoare (afi\c sate cu s\u age\c ti) la obiectele urm\u atoare \c si anterioare. Atributul \textit {next} al cozii \c si atributul \textit {prev} al capului sunt $NIL$, indicate printr-o bar\u a diagonal\u a. Atributul $L.cap$ arat\u a spre cap. \textbf {(b)} Dup\u a executarea $LIST-INSERT(L,x)$, unde $x.key = 25$, lista \^inl\u an\c tuit\u a are un nou obiect cu cheia 25 ca nou cap. Acest nou obiect indic\u a capul vechi cu cheia 9. \textbf {(c)} Rezultatul apelului ulterior $LIST-DELETE(L,x)$, unde $x$ indic\u a obiectul cu cheia 4}{figure.3.3}{}}
\@writefile{toc}{\contentsline {subsection}{\numberline {3.4.2}Inserarea \^intr-o list\u a \^inlan\c tuit\u a}{9}{subsection.3.4.2}\protected@file@percent }
\@writefile{toc}{\contentsline {subsection}{\numberline {3.4.3}\c Stergerea dintr-o list\u a legat\u a}{9}{subsection.3.4.3}\protected@file@percent }
\@writefile{toc}{\contentsline {subsection}{\numberline {3.4.4}Santinele}{10}{subsection.3.4.4}\protected@file@percent }
\@writefile{lof}{\contentsline {figure}{\numberline {3.4}{\ignorespaces O list\u a circular\u a, dublu \^inl\u an\c tuit\u a cu o santinel\u a. Sentinela $L.nil$ apare \^intre cap \c si coadu a. Atributul $L.head$ nu mai este necesar, deoarece putem accesa capul listei prin $L.nil.next$. \textbf  {(a)} O list\u a goal\u a. \textbf  {(b)} Lista \^inl\u an\c tuit\u a din Figura \ref  {Figure3}, cu cheia 9 la cap \c si cheia 1 la coad\u a. \textbf  {(c)} Lista dup\u a executarea $LIST-INSERT'(L,x)$, unde $x.key = 25$. Noul obiect devine capul listei. \textbf  {(d)} Lista dup\u a \c stergerea obiectului cu cheia 1. Noua coad\u a este obiectul cu cheia 4.}}{10}{figure.3.4}\protected@file@percent }
\newlabel{Figure4}{{3.4}{10}{O list\u a circular\u a, dublu \^inl\u an\c tuit\u a cu o santinel\u a. Sentinela $L.nil$ apare \^intre cap \c si coadu a. Atributul $L.head$ nu mai este necesar, deoarece putem accesa capul listei prin $L.nil.next$. \textbf {(a)} O list\u a goal\u a. \textbf {(b)} Lista \^inl\u an\c tuit\u a din Figura \ref {Figure3}, cu cheia 9 la cap \c si cheia 1 la coad\u a. \textbf {(c)} Lista dup\u a executarea $LIST-INSERT'(L,x)$, unde $x.key = 25$. Noul obiect devine capul listei. \textbf {(d)} Lista dup\u a \c stergerea obiectului cu cheia 1. Noua coad\u a este obiectul cu cheia 4}{figure.3.4}{}}
\@writefile{toc}{\contentsline {section}{\numberline {3.5}Arbori binari de c\u autare}{11}{section.3.5}\protected@file@percent }
\@writefile{toc}{\contentsline {subsection}{\numberline {3.5.1}Ce este un arbore binar de c\u autare?}{11}{subsection.3.5.1}\protected@file@percent }
\@writefile{lof}{\contentsline {figure}{\numberline {3.5}{\ignorespaces Arbori binari de c\u autare. Pentru orice nod $x$, cheile din subarborele din st\^anga lui $x$ sunt cel mult $x.key$, iar cheile din subarborele din dreapta al lui $x$ sunt cel pu\c tin $x.key$. Diferi\c ti arbori binari de c\u autare pot reprezenta acela\c si set de valori. Cel mai r\u au timp de func\c tionare pentru majoritatea opera\c tiilor de c\u autare este propor\c tional cu \^in\u al\c timea arborelui. \textbf  {(a)} Un arbore binar de c\u autare cu 6 noduri cu \^in\u al\c timea 2. \textbf  {(b)} Un arbore binar de c\u autare mai pu\c tin eficient cu \^in\u al\c timea 4 care con\c tine acelea\c si chei.}}{12}{figure.3.5}\protected@file@percent }
\newlabel{Figure5}{{3.5}{12}{Arbori binari de c\u autare. Pentru orice nod $x$, cheile din subarborele din st\^anga lui $x$ sunt cel mult $x.key$, iar cheile din subarborele din dreapta al lui $x$ sunt cel pu\c tin $x.key$. Diferi\c ti arbori binari de c\u autare pot reprezenta acela\c si set de valori. Cel mai r\u au timp de func\c tionare pentru majoritatea opera\c tiilor de c\u autare este propor\c tional cu \^in\u al\c timea arborelui. \textbf {(a)} Un arbore binar de c\u autare cu 6 noduri cu \^in\u al\c timea 2. \textbf {(b)} Un arbore binar de c\u autare mai pu\c tin eficient cu \^in\u al\c timea 4 care con\c tine acelea\c si chei}{figure.3.5}{}}
\@writefile{toc}{\contentsline {subsection}{\numberline {3.5.2}Interogarea unui arbore binar de c\u autare}{13}{subsection.3.5.2}\protected@file@percent }
\@writefile{lof}{\contentsline {figure}{\numberline {3.6}{\ignorespaces Interog\u ari pe un arbore de c\u autare binar. Pentru a c\u auta cheia 13 din arbore, urm\u am calea $15 \to 6 \to 7 \to 13$ din r\u ad\u acin\u a. Cheia minim\u a din arbore este 2, care se g\u ase\c ste urm\u arind indica\c tiile din st\^anga din r\u ad\u acin\u a. Cheia maxim\u a 20 se g\u ase\c ste urm\u arind indica\c tiile din dreapta din r\u ad\u acin\u a. Succesorul nodului cu cheia 15 este nodul cu cheia 17, deoarece este cheia minim\u a din subarborele din dreapta din 15. Nodul cu cheia 13 nu are subarborele drept \c si, astfel, succesorul s\u au este cel mai mic str\u amo\c s al c\u arui copil st\^ang este tot str\u amo\c s. \^In acest caz, nodul cu cheia 15 este succesorul s\u au.}}{13}{figure.3.6}\protected@file@percent }
\newlabel{Figure6}{{3.6}{13}{Interog\u ari pe un arbore de c\u autare binar. Pentru a c\u auta cheia 13 din arbore, urm\u am calea $15 \to 6 \to 7 \to 13$ din r\u ad\u acin\u a. Cheia minim\u a din arbore este 2, care se g\u ase\c ste urm\u arind indica\c tiile din st\^anga din r\u ad\u acin\u a. Cheia maxim\u a 20 se g\u ase\c ste urm\u arind indica\c tiile din dreapta din r\u ad\u acin\u a. Succesorul nodului cu cheia 15 este nodul cu cheia 17, deoarece este cheia minim\u a din subarborele din dreapta din 15. Nodul cu cheia 13 nu are subarborele drept \c si, astfel, succesorul s\u au este cel mai mic str\u amo\c s al c\u arui copil st\^ang este tot str\u amo\c s. \^In acest caz, nodul cu cheia 15 este succesorul s\u au}{figure.3.6}{}}
\@writefile{toc}{\contentsline {subsection}{\numberline {3.5.3}C\u autarea}{14}{subsection.3.5.3}\protected@file@percent }
\@writefile{toc}{\contentsline {subsection}{\numberline {3.5.4}Minimum \c si maximum}{14}{subsection.3.5.4}\protected@file@percent }
\@writefile{toc}{\contentsline {subsection}{\numberline {3.5.5}Succesor \c si predecesor}{15}{subsection.3.5.5}\protected@file@percent }
\bibcite{1}{1}
\bibcite{2}{2}
\bibcite{3}{3}
