\relax 
\@writefile{toc}{\contentsline {section}{\numberline {1}Exerci\c tiul 1}{1}\protected@file@percent }
\@writefile{toc}{\contentsline {section}{\numberline {2}Exerci\c tiul 2}{2}\protected@file@percent }
\@writefile{toc}{\contentsline {subsection}{\numberline {2.1}Legea normal\u a (Gauss-Laplace)}{2}\protected@file@percent }
\@writefile{lof}{\contentsline {figure}{\numberline {1}{\ignorespaces Clopotul lui Gauss}}{2}\protected@file@percent }
