\relax 
\@writefile{lof}{\contentsline {figure}{\numberline {1}{\ignorespaces }}{1}\protected@file@percent }
\newlabel{fig:veverita}{{1}{1}}
\@writefile{lof}{\contentsline {figure}{\numberline {2}{\ignorespaces }}{2}\protected@file@percent }
\newlabel{fig:veverita2}{{2}{2}}
\@writefile{lof}{\contentsline {figure}{\numberline {3}{\ignorespaces }}{3}\protected@file@percent }
\newlabel{fig:veverita3}{{3}{3}}
\newlabel{fig:b1}{{4(a)}{3}}
\newlabel{sub@fig:b1}{{(a)}{3}}
\newlabel{fig:b2}{{4(b)}{3}}
\newlabel{sub@fig:b2}{{(b)}{3}}
\newlabel{fig:b3}{{4(c)}{3}}
\newlabel{sub@fig:b3}{{(c)}{3}}
\@writefile{lof}{\contentsline {figure}{\numberline {4}{\ignorespaces Toamna}}{3}\protected@file@percent }
\@writefile{lof}{\contentsline {subfigure}{\numberline{(a)}{\ignorespaces {Toamna 1}}}{3}\protected@file@percent }
\@writefile{lof}{\contentsline {subfigure}{\numberline{(b)}{\ignorespaces {Toamna 2}}}{3}\protected@file@percent }
\@writefile{lof}{\contentsline {subfigure}{\numberline{(c)}{\ignorespaces {Toamna 3}}}{3}\protected@file@percent }
\newlabel{fig:B}{{4}{3}}
\@writefile{loa}{\contentsline {algorithm}{\numberline {1}{\ignorespaces Algoritmul lui Euclid}}{3}\protected@file@percent }
\newlabel{euclid}{{1}{3}}
\newlabel{euclidendwhile}{{6}{3}}
\@writefile{loa}{\contentsline {algorithm}{\numberline {2}{\ignorespaces Al doilea algoritm}}{4}\protected@file@percent }
\newlabel{alg2}{{2}{4}}
\@writefile{loa}{\contentsline {algorithm}{\numberline {3}{\ignorespaces Al treilea algoritm}}{4}\protected@file@percent }
\newlabel{alg3}{{3}{4}}
\@writefile{loa}{\contentsline {algorithm}{\numberline {4}{\ignorespaces Al patrulea algoritm}}{4}\protected@file@percent }
\newlabel{alg4}{{4}{4}}
\@writefile{loa}{\contentsline {algorithm}{\numberline {5}{\ignorespaces Al cincilea algoritm}}{5}\protected@file@percent }
\newlabel{alg5}{{5}{5}}
